…
``` r
new_gp <- gapminder %>% 
  filter(country %in% c(as.matrix(name.list)))

new_gp_data <- new_gp %>% 
  select(lifeExp, gdpPercap)
  
print(new_gp)
```

    ## # A tibble: 36 × 6
    ##        country continent  year lifeExp     pop gdpPercap
    ##         <fctr>    <fctr> <int>   <dbl>   <int>     <dbl>
    ## 1  New Zealand   Oceania  1952   69.39 1994794  10556.58
    ## 2  New Zealand   Oceania  1957   70.26 2229407  12247.40
    ## 3  New Zealand   Oceania  1962   71.24 2488550  13175.68
    ## 4  New Zealand   Oceania  1967   71.52 2728150  14463.92
    ## 5  New Zealand   Oceania  1972   71.89 2929100  16046.04
    ## 6  New Zealand   Oceania  1977   72.22 3164900  16233.72
    ## 7  New Zealand   Oceania  1982   73.84 3210650  17632.41
    ## 8  New Zealand   Oceania  1987   74.32 3317166  19007.19
    ## 9  New Zealand   Oceania  1992   76.33 3437674  18363.32
    ## 10 New Zealand   Oceania  1997   77.55 3676187  21050.41
    ## # ... with 26 more rows
